LON,LAT,NUMBER,STREET,UNIT,CITY,DISTRICT,REGION,POSTCODE,ID,HASH
-15.6957802,28.0986426,S/N,CL ADARGOMA,,,,,35480,,43a499c553ef0fb2
-15.6955675,28.0984395,S/N,CL ADARGOMA,,,,,35480,,98fcd14a49896691
-15.6958193,28.098917,1,CL ADARGOMA,,,,,35480,,935c284b22898faf
-15.6959882,28.098346,1,CL ADARGOMA,,,,,35480,,aa283099e54c0d9a
-15.6957103,28.0984079,2,CL ADARGOMA,,,,,35480,,9ce2b12ae2432551
-15.6958904,28.0984274,3,CL ADARGOMA,,,,,35480,,6eca2f832918eaec
-15.6958904,28.0984274,3,CL ADARGOMA,,,,,35480,,6eca2f832918eaec
-15.6959164,28.0988775,4B,CL ADARGOMA,,,,,35480,,086e1a5b50585ba5
-15.6957614,28.0985201,5,CL ADARGOMA,,,,,35480,,67e97675e656276f
-15.6958943,28.0986103,5,CL ADARGOMA,,,,,35480,,8f91acd0d0ae20d6